Análise da interferência da formação de florestas plantadas na área de lâmina hídrica da bacia do rio doce
…
#Seleção de variáveis de interesse neste estudo
var_interesse <- c("ANO", "Forest Formation", "Forest Plantation", "Pasture" , "River, Lake and Ocean", "Urban Infrastructure" )
coverage <- coverage%>%select("area", 'band', 'class_name')

colnames(coverage) <- c('AREA_HA', 'ANO', 'CLASSE')
coverage$ANO <- str_replace(coverage$ANO, 'classification_', '')
coverage <- coverage %>% filter(CLASSE %in% var_interesse)
coverage <- spread(coverage, CLASSE, AREA_HA)
coverage$ANO <- as.integer(coverage$ANO)

colnames(coverage) <- c("ANO", "Formacao_Florestal", "Plantacao_Florestal", "Pasto" , "Rio_Lago_Mar", "Infraestrutura_Urbana" )
coverage

## # A tibble: 37 × 6
##      ANO Formacao_Florest… Plantacao_Flore…  Pasto Rio_Lago_Mar Infraestrutura_…
##    <int>             <dbl>            <dbl>  <dbl>        <dbl>            <dbl>
##  1  1985            27221.             494. 42893.         737.             165.
##  2  1986            26502.             547. 43520.         738.             183.
##  3  1987            26099.             601. 43798.         734.             187.
##  4  1988            25944.             775. 44087.         704.             193.
##  5  1989            25537.             846. 44367.         702.             202.
##  6  1990            25369.             860. 44689.         694.             208.
##  7  1991            25045.            1037. 44963.         727.             216.
##  8  1992            24971.            1110. 44955.         744.             222.
##  9  1993            24956.            1118. 45059.         727.             238.
## 10  1994            24917.            1192. 44660.         733.             270.
## # … with 27 more rows
…
